<svg width="18" height="18" viewBox="0 0 18 18" fill="none" xmlns="http://www.w3.org/2000/svg">
<circle cx="9" cy="9" r="8.5" stroke="#6BC78A"/>
<path d="M13 6L7.93892 11.0909L5 8.26105" stroke="#6BC78A" stroke-linecap="round" stroke-linejoin="round"/>
</svg>
